[
  {
    "id": 158568,
    "name": "[Bundling] Intel Core i5-8600K 3.6Ghz Up To 4.3Ghz - Cache 9MB [Box] Socket LGA 1151 - Coffeelake Series + XFX Radeon RX 580 8GB DDR5 GTS XXX OC+ Dual Fan - RX-580P8DFD6",
    "details": "",
    "brand": 298,
    "category": 108,
    "subcategory": "",
    "brand_description": "Others",
    "category_description": "bundle",
    "subcategory_description": "",
    "price": 8490000,
    "weight": 2500,
    "quantity": 0,
    "stock_type": 0,
    "link_toped": null,
    "link_shopee": null,
    "link_bukalapak": null
  },
  {
    "id": 158567,
    "name": "[Bundling] Intel Core i5-8600K 3.6Ghz Up To 4.3Ghz - Cache 9MB [Box] Socket LGA 1151 - Coffeelake Series + XFX Radeon RX 570 8GB DDR5 RS XXX Edition - RX-570P8DFD6",
    "details": "",
    "brand": 298,
    "category": 108,
    "subcategory": "",
    "brand_description": "Others",
    "category_description": "bundle",
    "subcategory_description": "",
    "price": 7950000,
    "weight": 2500,
    "quantity": 0,
    "stock_type": 0,
    "link_toped": null,
    "link_shopee": null,
    "link_bukalapak": null
  }
]